95 0 605 622 1314 209 0 0 2376 0 1314 0 0 923 0 0
95 0 605 622 1523 0 0 0 2167 209 1314 0 0 923 0 0
95 0 605 622 0 209 1314 0 2767 923 0 0 923 0 0 0
95 0 605 622 0 209 1314 0 3690 0 0 0 0 923 0 0
95 0 605 622 209 0 1314 0 2558 1132 0 0 923 0 0 0
95 0 605 622 209 0 1314 0 3481 209 0 0 0 923 0 0
95 0 605 622 1132 0 391 0 2558 1132 0 0 0 0 923 0
95 0 605 622 1523 0 0 0 2167 1132 391 0 0 0 923 0
95 0 605 622 0 1132 391 0 2767 0 923 0 923 0 0 0
95 0 605 622 391 1132 0 0 2376 0 1314 0 923 0 0 0
95 0 605 622 1523 0 0 0 1244 1132 1314 0 923 0 0 0
95 0 605 622 0 1132 391 0 3690 0 0 0 0 0 923 0
95 0 605 622 391 1132 0 0 3299 0 391 0 0 0 923 0
95 0 996 231 0 1132 0 391 2767 0 923 0 923 0 0 0
95 0 996 231 1132 0 0 391 2558 1132 0 0 0 0 923 0
95 0 996 231 1523 0 0 0 2167 1132 0 391 0 0 923 0
95 0 996 231 0 1132 0 391 3690 0 0 0 0 0 923 0
95 0 996 231 391 1132 0 0 3299 0 0 391 0 0 923 0
95 0 1227 0 0 209 692 622 2767 923 0 0 923 0 0 0
95 0 1227 0 0 831 692 0 2767 301 0 622 923 0 0 0
95 0 1227 0 0 831 692 0 3068 0 0 622 622 301 0 0
95 0 1227 0 0 901 0 622 3459 231 0 0 231 0 692 0
95 0 1227 0 0 901 0 622 2998 0 692 0 692 231 0 0
95 0 1227 0 0 1132 0 391 3459 0 0 231 231 0 692 0
95 0 1227 0 0 1132 391 0 2767 0 301 622 923 0 0 0
95 0 1227 0 0 1132 391 0 3068 0 0 622 622 0 301 0
95 0 1227 0 209 0 692 622 2558 1132 0 0 923 0 0 0
95 0 1227 0 391 1132 0 0 2376 0 692 622 923 0 0 0
95 0 1227 0 391 1132 0 0 3068 0 0 622 231 0 692 0
95 0 1227 0 622 209 692 0 3068 0 0 622 0 923 0 0
95 0 1227 0 692 209 0 622 2998 0 692 0 0 923 0 0
95 0 1227 0 831 0 692 0 2859 209 0 622 0 923 0 0
95 0 1227 0 901 0 0 622 2789 209 692 0 0 923 0 0
95 0 1227 0 1314 209 0 0 2376 0 692 622 0 923 0 0
95 0 1227 0 1523 0 0 0 2167 209 692 622 0 923 0 0
95 0 1227 0 1523 0 0 0 2167 1132 0 391 0 0 692 231
95 0 1227 0 0 209 692 622 3690 0 0 0 0 923 0 0
95 0 1227 0 0 831 692 0 3389 301 0 0 301 0 0 622
95 0 1227 0 0 831 692 0 3690 0 0 0 0 301 0 622
95 0 1227 0 0 901 0 622 3690 0 0 0 0 231 692 0
95 0 1227 0 0 901 0 622 2767 231 692 0 923 0 0 0
95 0 1227 0 0 1132 0 391 3690 0 0 0 0 0 692 231
95 0 1227 0 0 1132 0 391 2767 0 692 231 923 0 0 0
95 0 1227 0 0 1132 0 391 2998 0 692 0 692 0 0 231
95 0 1227 0 0 1132 391 0 3690 0 0 0 0 0 301 622
95 0 1227 0 0 1132 391 0 3389 0 301 0 301 0 0 622
95 0 1227 0 209 0 692 622 3481 209 0 0 0 923 0 0
95 0 1227 0 391 1132 0 0 3299 0 0 391 0 0 692 231
95 0 1227 0 391 1132 0 0 3299 0 391 0 0 0 301 622
95 0 1227 0 391 1132 0 0 2998 0 692 0 301 0 0 622
95 0 1227 0 622 901 0 0 3068 0 0 622 0 231 692 0
95 0 1227 0 692 831 0 0 2998 0 692 0 0 301 0 622
95 0 1227 0 831 0 692 0 1936 1132 0 622 923 0 0 0
95 0 1227 0 831 0 692 0 2558 1132 0 0 301 0 0 622
95 0 1227 0 831 0 692 0 2859 831 0 0 0 301 0 622
95 0 1227 0 901 0 0 622 2789 901 0 0 0 231 692 0
95 0 1227 0 901 0 0 622 2558 1132 0 0 231 0 692 0
95 0 1227 0 901 0 0 622 1866 1132 692 0 923 0 0 0
95 0 1227 0 1132 0 0 391 2558 1132 0 0 0 0 692 231
95 0 1227 0 1132 0 391 0 2558 1132 0 0 0 0 301 622
95 0 1227 0 1523 0 0 0 1244 1132 692 622 923 0 0 0
95 0 1227 0 1523 0 0 0 1866 1132 692 0 301 0 0 622
95 0 1227 0 1523 0 0 0 1936 1132 0 622 231 0 692 0
95 0 1227 0 1523 0 0 0 2167 831 692 0 0 301 0 622
95 0 1227 0 1523 0 0 0 2167 901 0 622 0 231 692 0
95 0 1227 0 1523 0 0 0 2167 1132 391 0 0 0 301 622
95 209 1018 0 1523 0 0 0 2167 0 901 622 0 923 0 0
95 209 396 622 1523 0 0 0 2167 0 1523 0 0 923 0 0
95 209 1018 0 622 0 901 0 3068 0 0 622 0 923 0 0
95 209 1018 0 901 0 0 622 2789 0 901 0 0 923 0 0
95 209 396 622 0 0 1523 0 2767 923 0 0 923 0 0 0
95 209 396 622 0 0 1523 0 3690 0 0 0 0 923 0 0
95 209 1018 0 0 0 901 622 3690 0 0 0 0 923 0 0
95 209 1018 0 0 0 901 622 2767 923 0 0 923 0 0 0
95 231 996 0 0 901 0 622 2767 0 923 0 923 0 0 0
95 231 996 0 901 0 0 622 2789 901 0 0 0 0 923 0
95 231 996 0 0 901 0 622 3690 0 0 0 0 0 923 0
95 231 996 0 1523 0 0 0 2167 901 0 622 0 0 923 0
95 231 996 0 622 901 0 0 3068 0 0 622 0 0 923 0
95 605 0 622 0 527 996 0 2767 0 923 0 923 0 0 0
95 605 0 622 996 527 0 0 1771 0 1919 0 923 0 0 0
95 605 0 622 1523 0 0 0 1244 527 1919 0 923 0 0 0
95 605 0 622 1523 0 0 0 1771 0 1919 0 396 527 0 0
95 605 0 622 0 0 1523 0 2767 527 396 0 923 0 0 0
95 605 0 622 0 0 1523 0 3294 0 396 0 396 527 0 0
95 605 0 622 527 0 996 0 3163 527 0 0 0 0 923 0
95 605 0 622 1523 0 0 0 2167 527 996 0 0 0 923 0
95 605 0 622 0 0 1523 0 3163 527 0 0 527 0 396 0
95 605 0 622 0 0 1523 0 3690 0 0 0 0 527 396 0
95 605 0 622 0 527 996 0 3690 0 0 0 0 0 923 0
95 605 0 622 996 527 0 0 2694 0 996 0 0 0 923 0
95 605 0 622 1523 0 0 0 2167 0 1523 0 0 527 396 0
95 831 396 0 0 0 1523 0 2767 301 0 622 923 0 0 0
95 831 396 0 0 0 1523 0 3068 0 0 622 622 301 0 0
95 831 396 0 0 0 1523 0 3389 301 0 0 301 0 0 622
95 831 396 0 0 0 1523 0 3690 0 0 0 0 301 0 622
95 831 396 0 1523 0 0 0 2167 0 1523 0 0 301 0 622
95 1132 0 94.9999999999997 0 0 996 527 2767 0 923 0 923 0 0 0
95 1132 0 94.9999999999997 996 0 0 527 1771 0 1919 0 923 0 0 0
95 1132 0 94.9999999999998 0 0 1523 0 2767 0 396 527 923 0 0 0
95 1132 0 94.9999999999998 0 0 1523 0 3163 0 0 527 527 0 396 0
95 1132 0 94.9999999999998 1523 0 0 0 1244 0 1919 527 923 0 0 0
95 1132 94.9999999999997 0 0 0 901 622 2767 0 923 0 923 0 0 0
95 1132 94.9999999999997 0 901 0 0 622 1866 0 1824 0 923 0 0 0
95 1132 94.9999999999998 0 0 0 1523 0 2767 0 301 622 923 0 0 0
95 1132 94.9999999999998 0 0 0 1523 0 3068 0 0 622 622 0 301 0
95 1132 94.9999999999998 0 1523 0 0 0 1244 0 1824 622 923 0 0 0
95 1132 0 94.9999999999998 0 0 996 527 3690 0 0 0 0 0 923 0
95 1132 0 94.9999999999998 0 0 1523 0 3294 0 396 0 396 0 0 527
95 1132 0 94.9999999999998 0 0 1523 0 3690 0 0 0 0 0 396 527
95 1132 0 94.9999999999998 996 0 0 527 2694 0 996 0 0 0 923 0
95 1132 0 94.9999999999998 1523 0 0 0 1771 0 1919 0 396 0 0 527
95 1132 0 94.9999999999998 1523 0 0 0 2167 0 1523 0 0 0 396 527
95 1132 0 94.9999999999998 527 0 996 0 3163 0 0 527 0 0 923 0
95 1132 0 94.9999999999998 1523 0 0 0 2167 0 996 527 0 0 923 0
95 1132 94.9999999999998 0 0 0 901 622 3690 0 0 0 0 0 923 0
95 1132 94.9999999999998 0 0 0 1523 0 3389 0 301 0 301 0 0 622
95 1132 94.9999999999998 0 0 0 1523 0 3690 0 0 0 0 0 301 622
95 1132 94.9999999999998 0 901 0 0 622 2789 0 901 0 0 0 923 0
95 1132 94.9999999999998 0 1523 0 0 0 1866 0 1824 0 301 0 0 622
95 1132 94.9999999999998 0 1523 0 0 0 2167 0 1523 0 0 0 301 622
95 1132 94.9999999999998 0 622 0 901 0 3068 0 0 622 0 0 923 0
95 1132 94.9999999999998 0 1523 0 0 0 2167 0 901 622 0 0 923 0
