\relax 
\providecommand\HyperFirstAtBeginDocument{\AtBeginDocument}
\HyperFirstAtBeginDocument{\ifx\hyper@anchor\@undefined
\global\let\oldcontentsline\contentsline
\gdef\contentsline#1#2#3#4{\oldcontentsline{#1}{#2}{#3}}
\global\let\oldnewlabel\newlabel
\gdef\newlabel#1#2{\newlabelxx{#1}#2}
\gdef\newlabelxx#1#2#3#4#5#6{\oldnewlabel{#1}{{#2}{#3}}}
\AtEndDocument{\ifx\hyper@anchor\@undefined
\let\contentsline\oldcontentsline
\let\newlabel\oldnewlabel
\fi}
\fi}
\global\let\hyper@last\relax 
\gdef\HyperFirstAtBeginDocument#1{#1}
\providecommand\HyField@AuxAddToFields[1]{}
\@writefile{toc}{\contentsline {section}{\numberline {1}Introduction}{1}{section.1}}
\newlabel{eq:polyheq}{{1}{1}{Introduction\relax }{equation.1.1}{}}
\@writefile{loa}{\contentsline {algorithm}{\numberline {1}{\ignorespaces Sample\_00($A'$, $b'$)}}{2}{algorithm.1}}
\newlabel{algo:sample00}{{1}{2}{The basic algorithm\relax }{algorithm.1}{}}
\newlabel{sample00:endrecur}{{1}{2}{The basic algorithm\relax }{ALC@unique.1}{}}
\newlabel{sample00:margapprox}{{5}{2}{The basic algorithm\relax }{ALC@unique.5}{}}
\newlabel{sample00:samplexi}{{6}{2}{The basic algorithm\relax }{ALC@unique.6}{}}
\newlabel{sample00:newA}{{7}{2}{The basic algorithm\relax }{ALC@unique.7}{}}
\newlabel{sample00:newb}{{8}{2}{The basic algorithm\relax }{ALC@unique.8}{}}
\newlabel{sample00:recursion}{{9}{2}{The basic algorithm\relax }{ALC@unique.9}{}}
\newlabel{sample00:xtogether}{{10}{2}{The basic algorithm\relax }{ALC@unique.10}{}}
\newlabel{eq:polyhineq}{{2}{2}{Introduction\relax }{equation.1.2}{}}
\@writefile{toc}{\contentsline {subsection}{\numberline {1.1}The basic algorithm}{2}{subsection.1.1}}
\newlabel{sec:basicalgo}{{1.1}{2}{The basic algorithm\relax }{subsection.1.1}{}}
\@writefile{toc}{\contentsline {subsection}{\numberline {1.2}Motivating applications}{2}{subsection.1.2}}
\@writefile{lof}{\contentsline {figure}{\numberline {1}{\ignorespaces The sampling algorithm from dimension $3$ on.}}{3}{figure.1}}
\newlabel{fig:3dptopesampling}{{1}{3}{The sampling algorithm from dimension $3$ on}{figure.1}{}}
\@writefile{toc}{\contentsline {section}{\numberline {2}The true marginal distribution along a coordinate}{3}{section.2}}
\newlabel{sec:truemarg}{{2}{3}{The true marginal distribution along a coordinate\relax }{section.2}{}}
\@writefile{lof}{\contentsline {figure}{\numberline {2}{\ignorespaces The polyhedral structure of the section changes from a point to a triangle to a quadrilateral to a triangle to a point as the section goes through the vertices $ A, B, C $ and $ D $.}}{4}{figure.2}}
\newlabel{fig:sectionchange}{{2}{4}{The polyhedral structure of the section changes from a point to a triangle to a quadrilateral to a triangle to a point as the section goes through the vertices $ A, B, C $ and $ D $}{figure.2}{}}
\citation{S_CBBMT_93}
\citation{S_CBBMT_93}
\citation{S_CBBMT_93}
\citation{BZ_GI_88}
\citation{EOM}
\citation{EOM}
\@writefile{toc}{\contentsline {subsection}{\numberline {2.1}The volume of a section in a slice of $ P $}{5}{subsection.2.1}}
\newlabel{sec:volsecloc}{{2.1}{5}{The volume of a section in a slice of $ P $\relax }{subsection.2.1}{}}
\newlabel{eq:volsecloc}{{3}{5}{The volume of a section in a slice of $ P $\relax }{equation.2.3}{}}
\newlabel{eq:distsecloc}{{4}{5}{The volume of a section in a slice of $ P $\relax }{equation.2.4}{}}
\newlabel{eq:volslice}{{5}{5}{The volume of a section in a slice of $ P $\relax }{equation.2.5}{}}
\citation{BZ_GI_88}
\citation{S_CBBMT_93}
\citation{Huber1995pa}
\newlabel{eq:volpropfact}{{6}{6}{The volume of a section in a slice of $ P $\relax }{equation.2.6}{}}
\@writefile{toc}{\contentsline {subsection}{\numberline {2.2}Mixed volumes and a trivial example}{6}{subsection.2.2}}
\newlabel{sec:MVtrivex}{{2.2}{6}{Mixed volumes and a trivial example\relax }{subsection.2.2}{}}
\newlabel{prop:voldecomp_MV}{{2.1}{6}{\relax }{thm.2.1}{}}
\newlabel{eq:volmixvol}{{7}{6}{\relax }{equation.2.7}{}}
\@writefile{toc}{\contentsline {subsection}{\numberline {2.3}A simple non-trivial example}{7}{subsection.2.3}}
\@writefile{lof}{\contentsline {figure}{\numberline {3}{\ignorespaces The volume of the section remains constant as $ s $ varies from $ 0 $ to $ 1 $, and is described by the Bernstein polynomial $ s^2 + 2s(1-s) + (1-s)^2 $.}}{8}{figure.3}}
\newlabel{fig:cubedecomp}{{3}{8}{The volume of the section remains constant as $ s $ varies from $ 0 $ to $ 1 $, and is described by the Bernstein polynomial $ s^2 + 2s(1-s) + (1-s)^2 $}{figure.3}{}}
\@writefile{lof}{\contentsline {figure}{\numberline {4}{\ignorespaces $ S_0 = \unhbox \voidb@x \hbox {Conv}(I,J,C,D) $ and $ S_1 = \unhbox \voidb@x \hbox {Conv}(E,H,L,K) $ have volume $ 2 $, but the maximum volume of sections is $ 1.5^2 = 2.25 $ attained for $ S(0.5) = \unhbox \voidb@x \hbox {Conv}(M,N,O,P) $.}}{9}{figure.4}}
\newlabel{fig:nontrivslice}{{4}{9}{$ S_0 = \mbox {Conv}(I,J,C,D) $ and $ S_1 = \mbox {Conv}(E,H,L,K) $ have volume $ 2 $, but the maximum volume of sections is $ 1.5^2 = 2.25 $ attained for $ S(0.5) = \mbox {Conv}(M,N,O,P) $}{figure.4}{}}
\@writefile{toc}{\contentsline {subsection}{\numberline {2.4}The pdf as a Bezier spline}{9}{subsection.2.4}}
\@writefile{lof}{\contentsline {figure}{\numberline {5}{\ignorespaces Graph of the volume of sections $ S(s) $ as a quadratic Bezier curve with control points $ \{(0,2), (0.5,2.5), (1,2)\} $.}}{10}{figure.5}}
\newlabel{fig:bezvolcurve}{{5}{10}{Graph of the volume of sections $ S(s) $ as a quadratic Bezier curve with control points $ \{(0,2), (0.5,2.5), (1,2)\} $}{figure.5}{}}
\citation{Bernstein1975pa}
\citation{Huber1995pa}
\citation{Emiris1995pa}
\citation{Verschelde1996pa}
\@writefile{toc}{\contentsline {section}{\numberline {3}Sampling a value for the coordinate from the marginal distribution}{11}{section.3}}
\@writefile{toc}{\contentsline {subsection}{\numberline {3.1}A hierarchical model for the marginal distribution}{11}{subsection.3.1}}
\@writefile{loa}{\contentsline {algorithm}{\numberline {2}{\ignorespaces GenMargin($P$)}}{11}{algorithm.2}}
\newlabel{algo:genmarg}{{2}{11}{A hierarchical model for the marginal distribution\relax }{algorithm.2}{}}
\newlabel{genmark:volslices}{{7}{11}{A hierarchical model for the marginal distribution\relax }{ALC@unique.18}{}}
\@writefile{toc}{\contentsline {subsection}{\numberline {3.2}PIT on the Bezier spline}{11}{subsection.3.2}}
\citation{DeLoera2010bk}
\@writefile{toc}{\contentsline {section}{\numberline {4}Computation and Experiments}{12}{section.4}}
\@writefile{toc}{\contentsline {subsection}{\numberline {4.1}Computing mixed volumes}{12}{subsection.4.1}}
\@writefile{loa}{\contentsline {algorithm}{\numberline {3}{\ignorespaces MV\_comput($S_1$, $S_0$)}}{12}{algorithm.3}}
\newlabel{algo:MVcomput}{{3}{12}{Computing mixed volumes\relax }{algorithm.3}{}}
\newlabel{MVcomput:Q}{{2}{12}{Computing mixed volumes\relax }{ALC@unique.25}{}}
\newlabel{MVcomput:T}{{3}{12}{Computing mixed volumes\relax }{ALC@unique.26}{}}
\newlabel{MVcomput:Ta}{{6}{12}{Computing mixed volumes\relax }{ALC@unique.29}{}}
\citation{Tebaldi1998pa}
\@writefile{toc}{\contentsline {section}{\numberline {5}Testing the theory on a $7$ by $16$ system}{13}{section.5}}
\@writefile{loa}{\contentsline {algorithm}{\numberline {4}{\ignorespaces Trig\_sample($P$)}}{14}{algorithm.4}}
\newlabel{algo:trigsample}{{4}{14}{Testing the theory on a $7$ by $16$ system\relax }{algorithm.4}{}}
\@writefile{lof}{\contentsline {figure}{\numberline {6}{\ignorespaces The distribution of $ 326 \leq x[1] \leq 491 $ as a bezier curve. The red circles are the control points. Their height corresponds to the normalized mixed volumes.}}{15}{figure.6}}
\newlabel{fig:x1s5}{{6}{15}{The distribution of $ 326 \leq x[1] \leq 491 $ as a bezier curve. The red circles are the control points. Their height corresponds to the normalized mixed volumes}{figure.6}{}}
\@writefile{toc}{\contentsline {section}{\numberline {6}Appendix}{15}{section.6}}
\@writefile{toc}{\contentsline {subsection}{\numberline {6.1}From Polyhedrons to Polytopes}{15}{subsection.6.1}}
\newlabel{sec:polyh2polyt}{{6.1}{15}{From Polyhedrons to Polytopes\relax }{subsection.6.1}{}}
\@writefile{lof}{\contentsline {figure}{\numberline {7}{\ignorespaces The full distribution of $ x[1] $ as a bezier spline. The red circles are the knots. The blue lines separates the slices. The bezier curve that is the $ 5^\mathrm  {th} $ part of the spline is visible in the red rectangle and magnified in Figure \ref  {fig:x1s5}.}}{16}{figure.7}}
\newlabel{fig:distx1}{{7}{16}{The full distribution of $ x[1] $ as a bezier spline. The red circles are the knots. The blue lines separates the slices. The bezier curve that is the $ 5^\mathrm {th} $ part of the spline is visible in the red rectangle and magnified in Figure \ref {fig:x1s5}}{figure.7}{}}
\@writefile{lof}{\contentsline {figure}{\numberline {8}{\ignorespaces The marginal distibution of each coordinate $ x[i] $.}}{17}{figure.8}}
\newlabel{fig:distall}{{8}{17}{The marginal distibution of each coordinate $ x[i] $}{figure.8}{}}
\bibdata{bibtex/cell_dist}
\bibcite{Bernstein1975pa}{{1}{}{{}}{{}}}
\bibcite{BZ_GI_88}{{2}{}{{}}{{}}}
\bibcite{Emiris1995pa}{{3}{}{{}}{{}}}
\bibcite{EOM}{{4}{}{{}}{{}}}
\bibcite{Huber1995pa}{{5}{}{{}}{{}}}
\bibcite{DeLoera2010bk}{{6}{}{{}}{{}}}
\bibcite{S_CBBMT_93}{{7}{}{{}}{{}}}
\bibcite{Tebaldi1998pa}{{8}{}{{}}{{}}}
\bibcite{Verschelde1996pa}{{9}{}{{}}{{}}}
\@writefile{toc}{\contentsline {subsection}{\numberline {6.2}How to compute a regular triangulation of a polytope}{19}{subsection.6.2}}
\newlabel{sec:regtrig}{{6.2}{19}{How to compute a regular triangulation of a polytope\relax }{subsection.6.2}{}}
\bibstyle{plain}
\providecommand\NAT@force@numbers{}\NAT@force@numbers
\@writefile{lof}{\contentsline {figure}{\numberline {9}{\ignorespaces The marginal histogram over all $ x[i] $ for $1$ million samples coming from algorithm \ref  {algo:trigsample}.}}{21}{figure.9}}
\newlabel{fig:histdistall}{{9}{21}{The marginal histogram over all $ x[i] $ for $1$ million samples coming from algorithm \ref {algo:trigsample}}{figure.9}{}}
\@writefile{lof}{\contentsline {figure}{\numberline {10}{\ignorespaces close-up on the marginal histogram over $ x[1] $ for our $1$ million point samples.}}{22}{figure.10}}
\newlabel{fig:histdistx1}{{10}{22}{close-up on the marginal histogram over $ x[1] $ for our $1$ million point samples}{figure.10}{}}
